{
  "content": [
    {
      "auctionType": 3,
      "creationDate": 1442250404000,
      "currency": "USD",
      "dealId": "1442225178554269962",
      "description": "1) Deal with all feature enabled",
      "floor": 1000,
      "pid": 1,
      "priorityType": "OPEN",
      "start": 1442314800000,
      "status": "Active",
      "stop": 1443697199000,
      "updatedOn": 1442250404000,
      "version": 0,
      "visibility": true,
      "dealCategory": 1,
      "placementFormulaStatus": "DONE"
    },
    {
      "creationDate": 1442250430000,
      "currency": "USD",
      "dealId": "1442225207489410042",
      "description": "Deal with all feature disabled",
      "pid": 2,
      "priorityType": "OPEN",
      "start": 1442314800000,
      "status": "Active",
      "stop": 1458298799000,
      "updatedOn": 1442250430000,
      "version": 0,
      "visibility": false,
      "dealCategory": 1,
      "placementFormulaStatus": "DONE"
    },
    {
      "creationDate": 1442250457000,
      "currency": "USD",
      "dealId": "144222524111424355",
      "description": "Deal with end never",
      "floor": 1000,
      "pid": 3,
      "priorityType": "OPEN",
      "start": 1447160400000,
      "status": "Active",
      "updatedOn": 1442250457000,
      "version": 0,
      "visibility": false,
      "dealCategory": 1,
      "placementFormulaStatus": "DONE"
    },
    {
      "creationDate": 1442250485000,
      "currency": "USD",
      "dealId": "1442225265641702149",
      "description": "Enabled deal",
      "pid": 4,
      "priorityType": "OPEN",
      "start": 1442228400000,
      "status": "Active",
      "stop": 1455886799000,
      "updatedOn": 1442250485000,
      "version": 0,
      "visibility": false,
      "dealCategory": 1,
      "placementFormulaStatus": "DONE"
    },
    {
      "creationDate": 1442250520000,
      "currency": "USD",
      "dealId": "1442225289467393435",
      "description": "Disabled deal",
      "pid": 5,
      "priorityType": "OPEN",
      "start": 1444820400000,
      "status": "Inactive",
      "stop": 1463137199000,
      "updatedOn": 1442250520000,
      "version": 0,
      "visibility": true,
      "dealCategory": 1,
      "placementFormulaStatus": "DONE"
    },
    {
      "auctionType": 3,
      "creationDate": 1442250553000,
      "currency": "USD",
      "dealId": "1442225326900112319",
      "description": "Deal with 3 suppliers",
      "floor": 1000,
      "pid": 6,
      "priorityType": "OPEN",
      "start": 1442228400000,
      "status": "Active",
      "updatedOn": 1442250553000,
      "version": 0,
      "visibility": false,
      "dealCategory": 1,
      "placementFormulaStatus": "DONE"
    },
    {
      "auctionType": 3,
      "creationDate": 1457031747000,
      "currency": "USD",
      "dealId": "1457031635254364732",
      "description": "ArchivedTagTest-EnabledDeal",
      "floor": 1,
      "pid": 7,
      "priorityType": "OPEN",
      "start": 1456981200000,
      "status": "Active",
      "updatedOn": 1457031839000,
      "version": 1,
      "visibility": true,
      "dealCategory": 1,
      "placementFormulaStatus": "DONE"
    },
    {
      "creationDate": 1457031825000,
      "currency": "USD",
      "dealId": "1457031762001880712",
      "description": "ArchivedTagTest-DisabledDeal",
      "pid": 8,
      "priorityType": "OPEN",
      "start": 1456981200000,
      "status": "Inactive",
      "updatedOn": 1457031852000,
      "version": 1,
      "visibility": true,
      "dealCategory": 1,
      "placementFormulaStatus": "DONE"
    },
    {
      "creationDate": 1457031905000,
      "currency": "USD",
      "dealId": "1457031857582262189",
      "description": "ArchivedTagTest-FutureDeal",
      "pid": 9,
      "priorityType": "OPEN",
      "start": 1457326800000,
      "status": "Active",
      "stop": 1457413199000,
      "updatedOn": 1457031905000,
      "version": 0,
      "visibility": false,
      "dealCategory": 1,
      "placementFormulaStatus": "DONE"
    },
    {
      "creationDate": 1457031952000,
      "currency": "USD",
      "dealId": "1457031911582269943",
      "description": "ArchivedTagTest-ExpiredDeal",
      "pid": 10,
      "priorityType": "OPEN",
      "start": 1456981200000,
      "status": "Active",
      "stop": 1457067599000,
      "updatedOn": 1457031952000,
      "version": 0,
      "visibility": false,
      "dealCategory": 1,
      "placementFormulaStatus": "DONE"
    }
  ],
  "empty": false,
  "first": true,
  "last": false,
  "number": 0,
  "numberOfElements": 10,
  "pageable": {
    "offset": 0,
    "pageNumber": 0,
    "pageSize": 10,
    "paged": true,
    "sort": {
      "empty": true,
      "sorted": false,
      "unsorted": true
    },
    "unpaged": false
  },
  "size": 10,
  "sort": {
    "empty": true,
    "sorted": false,
    "unsorted": true
  },
  "totalElements": 15,
  "totalPages": 2
}
