{
  "content": [
    {
      "id": "3",
      "name": "Microsoft",
      "pid": 9,
      "status": "ACTIVE",
      "version": 1
    },
    {
      "id": "4",
      "name": "Verizon",
      "pid": 12,
      "status": "ACTIVE",
      "version": 1
    }
  ],
  "empty": false,
  "first": false,
  "last": false,
  "number": 1,
  "numberOfElements": 2,
  "pageable": {
    "offset": 2,
    "pageNumber": 1,
    "pageSize": 2,
    "paged": true,
    "sort": {
      "empty": false,
      "sorted": true,
      "unsorted": false
    },
    "unpaged": false
  },
  "size": 2,
  "sort": {
    "empty": false,
    "sorted": true,
    "unsorted": false
  },
  "totalElements": 5,
  "totalPages": 3
}
