{
  "content": [
    {
      "appBundleId": 222,
      "appBundleName": null,
      "auctionRunHashId": "-9027528480977354317",
      "bidCount": "1",
      "bidderId": 13809,
      "dealId": "P681",
      "hbPartnerPid": 7678,
      "placementId": 680,
      "recordTime": "2019-03-12 15:34:10",
      "requestPayload": "{\"bidderId\":13809,\"url\":\"https://reserved.v.ssp.yahoo.com/reserved?ext_id=SSPMigration\",\"auction\":\"g7d09415c18041b7b5d3bbb5cc9e9d6d\",\"id\":\"g7d09415c18041b7b5d3bbb5cc9e9d6d\"}",
      "requestUrl": "https://web-oao.ssp.yahoo.com/admax/adServe.do?dcn=2a969d89015555d9dbe1dce95685004f",
      "responsePayload": "{\"bidderId\":13809,\"url\":\"null\",\"auction\":\"g7d09415c18041b7b5d3bbb5cc9e9d6d\",\"id\":\"g7d09415c18041b7b5d3bbb5cc9e9d6d\",\"cur\":\"USD\"}",
      "seatId": "abc933",
      "sellerId": 69,
      "siteId": 454
    },
    {
      "appBundleId": 789,
      "appBundleName": null,
      "auctionRunHashId": "45670",
      "bidCount": "3",
      "bidderId": 13807,
      "dealId": "P678",
      "hbPartnerPid": 7899,
      "placementId": 678,
      "recordTime": "2019-03-11 15:34:10",
      "requestPayload": "{\"bidderId\":13807,\"url\":\"https://reserved.v.ssp.yahoo.com/reserved?ext_id=SSPMigration\",\"auction\":\"e7d09415c18041b7b5d3ccc5cc9e9d6d\",\"id\":\"e7d09415c18041b7b5d3ccc5cc9e9d6d\"}",
      "requestUrl": "https://web-oao.ssp.yahoo.com/admax/adServe.do?dcn=8a969d89017777d9dbe1dce95685004f",
      "responsePayload": "{\"bidderId\":13807,\"url\":\"null\",\"auction\":\"e7d09415c18041b7b5d3ccc5cc9e9d6d\",\"id\":\"e7d09415c18041b7b5d3ccc5cc9e9d6d\",\"cur\":\"USD\"}",
      "seatId": "abc900",
      "sellerId": 67,
      "siteId": 458
    }
  ],
  "empty": false,
  "first": true,
  "last": false,
  "number": 0,
  "numberOfElements": 2,
  "pageable": {
    "offset": 0,
    "pageNumber": 0,
    "pageSize": 2,
    "paged": true,
    "sort": {
      "empty": false,
      "sorted": true,
      "unsorted": false
    },
    "unpaged": false
  },
  "size": 2,
  "sort": {
    "empty": false,
    "sorted": true,
    "unsorted": false
  },
  "totalElements": 3,
  "totalPages": 2
}
