{
  "content":[
    {
      "genre":"Action",
      "pid":1
    },
    {
      "genre":"Adventure",
      "pid":2
    },
    {
      "genre":"Baseball",
      "pid":3
    },
    {
      "genre":"Comedy",
      "pid":4
    },
    {
      "genre":"Documentary",
      "pid":5
    },
    {
      "genre":"Education",
      "pid":6
    },
    {
      "genre":"Family",
      "pid":7
    },
    {
      "genre":"Foreign",
      "pid":8
    },
    {
      "genre":"Gambling",
      "pid":9
    },
    {
      "genre":"Game Show",
      "pid":10
    }
  ],
  "empty":false,
  "first":true,
  "last":false,
  "number":0,
  "numberOfElements":10,
  "pageable":{
    "offset":0,
    "pageNumber":0,
    "pageSize":10,
    "paged":true,
    "sort":{
      "empty":false,
      "sorted":true,
      "unsorted":false
    },
    "unpaged":false
  },
  "size":10,
  "sort":{
    "empty":false,
    "sorted":true,
    "unsorted":false
  },
  "totalElements":17,
  "totalPages":2
}
