{
  "content":[
    {
      "pid":1,
      "languageCode":"ab",
      "languageName":"Abkhazian"
    },
    {
      "pid":2,
      "languageCode":"aa",
      "languageName":"Afar"
    },
    {
      "pid":3,
      "languageCode":"af",
      "languageName":"Afrikaans"
    },
    {
      "pid":4,
      "languageCode":"bn",
      "languageName":"Bengali"
    },
    {
      "pid":5,
      "languageCode":"bi",
      "languageName":"Bislama"
    },
    {
      "pid":6,
      "languageCode":"ny",
      "languageName":"Chichewa"
    },
    {
      "pid":7,
      "languageCode":"cu",
      "languageName":"Church Slavonic"
    },
    {
      "pid":8,
      "languageCode":"de",
      "languageName":"German"
    },
    {
      "pid":9,
      "languageCode":"el",
      "languageName":"Greek"
    },
    {
      "pid":10,
      "languageCode":"he",
      "languageName":"Hebrew"
    }
  ],
  "empty":false,
  "first":true,
  "last":false,
  "number":0,
  "numberOfElements":10,
  "pageable":{
    "offset":0,
    "pageNumber":0,
    "pageSize":10,
    "paged":true,
    "sort":{
      "empty":false,
      "sorted":true,
      "unsorted":false
    },
    "unpaged":false
  },
  "size":10,
  "sort":{
    "empty":false,
    "sorted":true,
    "unsorted":false
  },
  "totalElements":17,
  "totalPages":2
}
