{
  "sites": {
    "content": [
      {
        "dcn": "8a859e0f013c3c4e13986853bf60000d",
        "id": "8a859e0f013c3c4e13986853bfb8000e",
        "status": "ACTIVE",
        "name": "Rovio - Test Android",
        "type": "MOBILE_WEB",
        "live": false,
        "platform": "OTHER",
        "sellerRevenue": 0.0,
        "adRequested": 0,
        "adDelivered": 0,
        "adServed": 0,
        "adClicked": 0,
        "fillRate": 0.0,
        "ecpm": 0.0,
        "ctr": 0.0,
        "rpm": 0.0,
        "revenueTrendPercent": 0.0,
        "pid": 1275
      },
      {
        "dcn": "8a859e0f013c3c4e13986d68b5870010",
        "id": "8a859e0f013c3c4e13986d68b5870011",
        "status": "ACTIVE",
        "name": "Rovio - Test iOS",
        "type": "MOBILE_WEB",
        "live": false,
        "platform": "OTHER",
        "sellerRevenue": 0.0,
        "adRequested": 0,
        "adDelivered": 0,
        "adServed": 0,
        "adClicked": 0,
        "fillRate": 0.0,
        "ecpm": 0.0,
        "ctr": 0.0,
        "rpm": 0.0,
        "revenueTrendPercent": 0.0,
        "pid": 1288
      },
      {
        "dcn": "8a859e0f013c3c4e13986d6c81650013",
        "id": "8a859e0f013c3c4e13986d6c81650014",
        "status": "ACTIVE",
        "name": "Rovio-Angry Birds Classic Free-iOS",
        "type": "MOBILE_WEB",
        "live": false,
        "platform": "OTHER",
        "sellerRevenue": 0.0,
        "adRequested": 0,
        "adDelivered": 0,
        "adServed": 0,
        "adClicked": 0,
        "fillRate": 0.0,
        "ecpm": 0.0,
        "ctr": 0.0,
        "rpm": 0.0,
        "revenueTrendPercent": 0.0,
        "pid": 1301
      },
      {
        "dcn": "8a859e0f013c3c4e13986d71e1070017",
        "id": "8a859e0f013c3c4e13986d71e1070018",
        "status": "ACTIVE",
        "name": "Rovio-Angry Birds Classic Free-iPad",
        "type": "MOBILE_WEB",
        "live": false,
        "platform": "OTHER",
        "sellerRevenue": 0.0,
        "adRequested": 0,
        "adDelivered": 0,
        "adServed": 0,
        "adClicked": 0,
        "fillRate": 0.0,
        "ecpm": 0.0,
        "ctr": 0.0,
        "rpm": 0.0,
        "revenueTrendPercent": 0.0,
        "pid": 1314
      }
    ],
    "pageable": {
      "sort": {
        "sorted": true,
        "unsorted": false,
        "empty": false
      },
      "pageNumber": 0,
      "pageSize": 4,
      "offset": 0,
      "unpaged": false,
      "paged": true
    },
    "totalPages": 2,
    "totalElements": 7,
    "last": false,
    "numberOfElements": 4,
    "sort": {
      "sorted": true,
      "unsorted": false,
      "empty": false
    },
    "number": 0,
    "first": true,
    "size": 4,
    "empty": false
  },
  "summary": {
    "requests": {
      "current": 0.0,
      "past": 0.0,
      "diff": 0.0,
      "diffPercent": 0.0
    },
    "served": {
      "current": 0.0,
      "past": 0.0,
      "diff": 0.0,
      "diffPercent": 0.0
    },
    "delivered": {
      "current": 0.0,
      "past": 0.0,
      "diff": 0.0,
      "diffPercent": 0.0
    },
    "clicks": {
      "current": 0.0,
      "past": 0.0,
      "diff": 0.0,
      "diffPercent": 0.0
    },
    "revenue": {
      "current": 0.0,
      "past": 0.0,
      "diff": 0.0,
      "diffPercent": 0.0
    },
    "fillRate": {
      "current": 0.0,
      "past": 0.0,
      "diff": 0.0,
      "diffPercent": 0.0
    },
    "ctr": {
      "current": 0.0,
      "past": 0.0,
      "diff": 0.0,
      "diffPercent": 0.0
    },
    "rpm": {
      "current": 0.0,
      "past": 0.0,
      "diff": 0.0,
      "diffPercent": 0.0
    },
    "ecpm": {
      "current": 0.0,
      "past": 0.0,
      "diff": 0.0,
      "diffPercent": 0.0
    }
  }
}
