{
  "sites": {
    "content": [
      {
        "dcn": "8a859e0f013c3c4e13986d7657af001a",
        "id": "8a859e0f013c3c4e13986d7657af001b",
        "status": "ACTIVE",
        "name": "Rovio-Angry Birds Seasons-Android",
        "type": "MOBILE_WEB",
        "live": false,
        "platform": "OTHER",
        "sellerRevenue": 0.0,
        "adRequested": 0,
        "adDelivered": 0,
        "adServed": 0,
        "adClicked": 0,
        "fillRate": 0.0,
        "ecpm": 0.0,
        "ctr": 0.0,
        "rpm": 0.0,
        "revenueTrendPercent": 0.0,
        "pid": 1327
      },
      {
        "dcn": "8a859e0f013c3c4e13986d784a29001d",
        "id": "8a859e0f013c3c4e13986d784a29001e",
        "status": "ACTIVE",
        "name": "Rovio-Angry Birds-Seasons-iOS",
        "type": "MOBILE_WEB",
        "live": false,
        "platform": "OTHER",
        "sellerRevenue": 0.0,
        "adRequested": 0,
        "adDelivered": 0,
        "adServed": 0,
        "adClicked": 0,
        "fillRate": 0.0,
        "ecpm": 0.0,
        "ctr": 0.0,
        "rpm": 0.0,
        "revenueTrendPercent": 0.0,
        "pid": 1340
      },
      {
        "dcn": "8a859e0f013c3c4e13986d791b760020",
        "id": "8a859e0f013c3c4e13986d791b760021",
        "status": "ACTIVE",
        "name": "Rovio-Angry Birds-Seasons-iPad",
        "type": "MOBILE_WEB",
        "live": false,
        "platform": "OTHER",
        "sellerRevenue": 0.0,
        "adRequested": 0,
        "adDelivered": 0,
        "adServed": 0,
        "adClicked": 0,
        "fillRate": 0.0,
        "ecpm": 0.0,
        "ctr": 0.0,
        "rpm": 0.0,
        "revenueTrendPercent": 0.0,
        "pid": 1353
      }
    ],
    "pageable": {
      "sort": {
        "sorted": true,
        "unsorted": false,
        "empty": false
      },
      "pageNumber": 1,
      "pageSize": 4,
      "offset": 4,
      "unpaged": false,
      "paged": true
    },
    "totalPages": 2,
    "totalElements": 7,
    "last": true,
    "numberOfElements": 3,
    "sort": {
      "sorted": true,
      "unsorted": false,
      "empty": false
    },
    "number": 1,
    "first": false,
    "size": 4,
    "empty": false
  },
  "summary": {
    "requests": {
      "current": 0.0,
      "past": 0.0,
      "diff": 0.0,
      "diffPercent": 0.0
    },
    "served": {
      "current": 0.0,
      "past": 0.0,
      "diff": 0.0,
      "diffPercent": 0.0
    },
    "delivered": {
      "current": 0.0,
      "past": 0.0,
      "diff": 0.0,
      "diffPercent": 0.0
    },
    "clicks": {
      "current": 0.0,
      "past": 0.0,
      "diff": 0.0,
      "diffPercent": 0.0
    },
    "revenue": {
      "current": 0.0,
      "past": 0.0,
      "diff": 0.0,
      "diffPercent": 0.0
    },
    "fillRate": {
      "current": 0.0,
      "past": 0.0,
      "diff": 0.0,
      "diffPercent": 0.0
    },
    "ctr": {
      "current": 0.0,
      "past": 0.0,
      "diff": 0.0,
      "diffPercent": 0.0
    },
    "rpm": {
      "current": 0.0,
      "past": 0.0,
      "diff": 0.0,
      "diffPercent": 0.0
    },
    "ecpm": {
      "current": 0.0,
      "past": 0.0,
      "diff": 0.0,
      "diffPercent": 0.0
    }
  }
}
