{
  "content": [
    {
      "dcn": "8a858a330137372da0982da3ffc50009",
      "id": "8a858a330137372da0982da3ffc5000a",
      "pId": 963,
      "version": 65,
      "adScreeningEnabled": false,
      "groupsEnabled": false,
      "buyerTimeout": 500,
      "consumerProfileContributed": false,
      "consumerProfileUsed": false,
      "creationDate": 1336500551000,
      "lastUpdate": 1461858918000,
      "daysFree": 0,
      "description": "test site for adserver functional test group 8",
      "domain": "www.test8domain.com",
      "filterBots": true,
      "inputDateFormat": "yyyyMMdd",
      "type": "MOBILE_WEB",
      "live": false,
      "name": "AS8B",
      "overrideIP": false,
      "platform": "OTHER",
      "reportBatchSize": 10,
      "reportFrequency": 180000,
      "rulesUpdateFrequency": 1800000,
      "status": "ACTIVE",
      "statusVal": 1,
      "trafficThrottle": 0,
      "totalTimeout": 1000,
      "url": "www.test8.com",
      "coppaRestricted": false,
      "metadataEnablement": false,
      "hbEnabled": false,
      "companyPid": 105
    }
  ],
  "last": true,
  "totalElements": 2,
  "totalPages": 2,
  "size": 1,
  "number": 1,
  "sort": {
    "empty": true,
    "sorted": false,
    "unsorted": true
  },
  "first": false,
  "numberOfElements": 1
}
