{
  "content":[
    {
      "pid":1,
      "rating":"NR"
    },
    {
      "pid":2,
      "rating":"G"
    },
    {
      "pid":3,
      "rating":"PG"
    },
    {
      "pid":4,
      "rating":"PG-13"
    },
    {
      "pid":5,
      "rating":"R"
    },
    {
      "pid":6,
      "rating":"NC-17"
    },
    {
      "pid":7,
      "rating":"TV-G"
    },
    {
      "pid":8,
      "rating":"TV-Y"
    },
    {
      "pid":9,
      "rating":"TV-Y7"
    },
    {
      "pid":10,
      "rating":"TV-PG"
    }
  ],
  "empty":false,
  "first":true,
  "last":false,
  "number":0,
  "numberOfElements":10,
  "pageable":{
    "offset":0,
    "pageNumber":0,
    "pageSize":10,
    "paged":true,
    "sort":{
      "empty":false,
      "sorted":true,
      "unsorted":false
    },
    "unpaged":false
  },
  "size":10,
  "sort":{
    "empty":false,
    "sorted":true,
    "unsorted":false
  },
  "totalElements":12,
  "totalPages":2
}
