{
  "content": [
    {
      "pid": 100327,
      "version": 0,
      "sitePid": 10000205,
      "site": {
        "dcn": "mobile",
        "id": "ff8080810160605772655aa024920006",
        "pId": 10000205,
        "version": 5,
        "adScreeningEnabled": false,
        "groupsEnabled": false,
        "buyerTimeout": 500,
        "consumerProfileContributed": false,
        "consumerProfileUsed": false,
        "creationDate": 1513348932000,
        "lastUpdate": 1513350736000,
        "daysFree": 0,
        "revenueLaunchDate": null,
        "description": null,
        "domain": "jspro.com",
        "ethnicityMap": null,
        "filterBots": true,
        "genderMap": null,
        "inputDateFormat": null,
        "type": "MOBILE_WEB",
        "live": false,
        "maritalStatusMap": null,
        "name": "mobilepro",
        "overrideIP": false,
        "platform": "OTHER",
        "reportBatchSize": 10,
        "reportFrequency": 180000,
        "rulesUpdateFrequency": 1800000,
        "status": "ACTIVE",
        "statusVal": 1,
        "trafficThrottle": 0,
        "totalTimeout": 5000,
        "url": "mobile.com",
        "coppaRestricted": false,
        "rtb1CategoryRollup": "",
        "globalAliasName": null,
        "maskIP": false,
        "metadataEnablement": false,
        "hbEnabled": false,
        "companyPid": 10227,
        "appBundle": null,
        "includeSiteName": null,
        "siteAliasId": null,
        "siteNameAlias": null,
        "includePubName": null,
        "pubAliasId": null,
        "pubNameAlias": null,
        "adTruthEnabled": null
      },
      "name": "interstitialprovision",
      "memo": "interstitialprovision",
      "mraidSupport": "YES",
      "videoSupport": "VIDEO_AND_BANNER",
      "screenLocation": "FULLSCREEN_VISIBLE",
      "mraidAdvancedTracking": true,
      "adSize": null,
      "staticAdUnit": null,
      "richMediaAdUnit": null,
      "richMediaMRAIDVersion": null,
      "videoMRAID2": null,
      "videoProprietary": null,
      "videoLinearity": "LINEAR",
      "fullScreenTiming": null,
      "positionAliasName": null,
      "height": 480,
      "width": 320,
      "status": "ACTIVE",
      "placementCategory": "INTERSTITIAL",
      "interstitial": true,
      "trafficType": "MEDIATION",
      "defaultRtbProfile": null,
      "defaultPositionNames": null,
      "updatedOn": null,
      "rtbProfilePid": null
    }
  ],
  "last": false,
  "totalElements": 2,
  "totalPages": 2,
  "size": 1,
  "number": 0,
  "sort": {
    "empty": true,
    "sorted": false,
    "unsorted": true
  },
  "first": true,
  "numberOfElements": 1
}
