{
  "content": [
    {
      "pid": 100247,
      "version": 0,
      "sitePid": 10000174,
      "site": {
        "dcn": "8a859e06014f4fd97b68dbd0de1d000b",
        "id": "8a859e06014f4fd97b68dbd0de1d000c",
        "pId": 10000174,
        "version": 11,
        "adScreeningEnabled": true,
        "groupsEnabled": false,
        "buyerTimeout": 500,
        "consumerProfileContributed": false,
        "consumerProfileUsed": false,
        "creationDate": 1442501942000,
        "lastUpdate": 1491784693000,
        "daysFree": 0,
        "description": "test",
        "domain": "test",
        "filterBots": true,
        "type": "MOBILE_WEB",
        "live": false,
        "name": "CRUDPosition_Site1",
        "overrideIP": false,
        "platform": "OTHER",
        "reportBatchSize": 10,
        "reportFrequency": 180000,
        "rulesUpdateFrequency": 1800000,
        "status": "ACTIVE",
        "statusVal": 1,
        "trafficThrottle": 0,
        "totalTimeout": 1000,
        "url": "test",
        "coppaRestricted": false,
        "rtb1CategoryRollup": "",
        "metadataEnablement": false,
        "hbEnabled": false,
        "companyPid": 10201
      },
      "name": "banner_placement",
      "memo": "banner placement",
      "mraidSupport": "YES",
      "videoSupport": "BANNER",
      "screenLocation": "ABOVE_VISIBLE",
      "mraidAdvancedTracking": true,
      "height": 50,
      "width": 300,
      "status": "ACTIVE",
      "placementCategory": "BANNER",
      "interstitial": false,
      "trafficType": "MEDIATION"
    }
  ],
  "last": false,
  "totalPages": 5,
  "totalElements": 5,
  "sort": {
    "empty": true,
    "sorted": false,
    "unsorted": true
  },
  "size": 1,
  "number": 0,
  "first": true,
  "numberOfElements": 1
}
