{
  "content": [
    {
      "pid": 13599,
      "version": 4,
      "sitePid": 950,
      "site": {
        "dcn": "8a858a330137372da0982da362880006",
        "id": "8a858a330137372da0982da362890007",
        "pId": 950,
        "version": 84,
        "adScreeningEnabled": false,
        "groupsEnabled": false,
        "buyerTimeout": 2000,
        "consumerProfileContributed": false,
        "consumerProfileUsed": false,
        "creationDate": 1336500511000,
        "daysFree": 0,
        "description": "test site A for Adserver functional test group 8",
        "domain": "www.test8domain.com",
        "filterBots": true,
        "inputDateFormat": "yyyyMMdd",
        "type": "MOBILE_WEB",
        "live": false,
        "name": "AS8A",
        "overrideIP": false,
        "platform": "OTHER",
        "reportBatchSize": 10,
        "reportFrequency": 180000,
        "rulesUpdateFrequency": 1800000,
        "status": "ACTIVE",
        "statusVal": 1,
        "trafficThrottle": 0,
        "totalTimeout": 5000,
        "url": "www.test8.com",
        "coppaRestricted": false,
        "metadataEnablement": false,
        "hbEnabled": false,
        "companyPid": 105
      },
      "name": "position3",
      "mraidSupport": "YES",
      "videoSupport": "BANNER",
      "screenLocation": "UNDEFINED",
      "mraidAdvancedTracking": true,
      "status": "ACTIVE",
      "placementCategory": "BANNER",
      "trafficType": "MEDIATION",
      "updatedOn": 1449008728000
    }
  ],
  "last": false,
  "totalPages": 8,
  "totalElements": 8,
  "sort": {
    "empty": true,
    "sorted": false,
    "unsorted": true
  },
  "first": true,
  "numberOfElements": 1,
  "size": 1,
  "number": 0
}
