{
  "content": [
    {
      "pid": 562,
      "categoryId": 6,
      "name": "3-D Graphics",
      "rtbId": "IAB19-1",
      "crsTags": [],
      "parentTagPid": 686
    },
    {
      "pid": 563,
      "categoryId": 6,
      "name": "Animation",
      "rtbId": "IAB19-2",
      "crsTags": [],
      "parentTagPid": 686
    },
    {
      "pid": 564,
      "categoryId": 6,
      "name": "Antivirus Software",
      "rtbId": "IAB19-3",
      "crsTags": [],
      "parentTagPid": 686
    },
    {
      "pid": 601,
      "categoryId": 6,
      "name": "Bidder House Ad",
      "rtbId": "NEX19-104",
      "crsTags": [],
      "parentTagPid": 686
    },
    {
      "pid": 565,
      "categoryId": 6,
      "name": "C/C++",
      "rtbId": "IAB19-4",
      "crsTags": [],
      "parentTagPid": 686
    },
    {
      "pid": 566,
      "categoryId": 6,
      "name": "Cameras & Camcorders",
      "rtbId": "IAB19-5",
      "crsTags": [],
      "parentTagPid": 686
    },
    {
      "pid": 567,
      "categoryId": 6,
      "name": "Cell Phones",
      "rtbId": "IAB19-6",
      "crsTags": [],
      "parentTagPid": 686
    },
    {
      "pid": 568,
      "categoryId": 6,
      "name": "Computer Certification",
      "rtbId": "IAB19-7",
      "crsTags": [],
      "parentTagPid": 686
    },
    {
      "pid": 569,
      "categoryId": 6,
      "name": "Computer Networking",
      "rtbId": "IAB19-8",
      "crsTags": [],
      "parentTagPid": 686
    },
    {
      "pid": 570,
      "categoryId": 6,
      "name": "Computer Peripherals",
      "rtbId": "IAB19-9",
      "crsTags": [],
      "parentTagPid": 686
    },
    {
      "pid": 571,
      "categoryId": 6,
      "name": "Computer Reviews",
      "rtbId": "IAB19-10",
      "crsTags": [],
      "parentTagPid": 686
    },
    {
      "pid": 572,
      "categoryId": 6,
      "name": "Data Centers",
      "rtbId": "IAB19-11",
      "crsTags": [],
      "parentTagPid": 686
    },
    {
      "pid": 573,
      "categoryId": 6,
      "name": "Databases",
      "rtbId": "IAB19-12",
      "crsTags": [],
      "parentTagPid": 686
    },
    {
      "pid": 574,
      "categoryId": 6,
      "name": "Desktop Publishing",
      "rtbId": "IAB19-13",
      "crsTags": [],
      "parentTagPid": 686
    },
    {
      "pid": 575,
      "categoryId": 6,
      "name": "Desktop Video",
      "rtbId": "IAB19-14",
      "crsTags": [],
      "parentTagPid": 686
    },
    {
      "pid": 576,
      "categoryId": 6,
      "name": "Email",
      "rtbId": "IAB19-15",
      "crsTags": [],
      "parentTagPid": 686
    },
    {
      "pid": 590,
      "categoryId": 6,
      "name": "Entertainment",
      "rtbId": "IAB19-29",
      "crsTags": [],
      "parentTagPid": 686
    },
    {
      "pid": 577,
      "categoryId": 6,
      "name": "Graphics Software",
      "rtbId": "IAB19-16",
      "crsTags": [],
      "parentTagPid": 686
    },
    {
      "pid": 578,
      "categoryId": 6,
      "name": "Home Video/DVD",
      "rtbId": "IAB19-17",
      "crsTags": [],
      "parentTagPid": 686
    },
    {
      "pid": 579,
      "categoryId": 6,
      "name": "Internet Technology",
      "rtbId": "IAB19-18",
      "crsTags": [],
      "parentTagPid": 686
    }
  ],
  "pageable": {
    "sort": {
      "unsorted": false,
      "sorted": true,
      "empty": false
    },
    "offset": 0,
    "pageNumber": 0,
    "pageSize": 20,
    "unpaged": false,
    "paged": true
  },
  "totalPages": 2,
  "totalElements": 40,
  "last": false,
  "number": 0,
  "sort": {
    "unsorted": false,
    "sorted": true,
    "empty": false
  },
  "size": 20,
  "numberOfElements": 20,
  "first": true,
  "empty": false
}