{
  "content": [
    {
      "pid": 1,
      "discountName": "golden-data-discount-1",
      "discountStatus": true,
      "discountPercent": 5.5,
      "discountDescription": "a test description"
    }
  ],
  "pageable": {
    "sort": {
      "sorted": true,
      "unsorted": false,
      "empty": false
    },
    "offset": 0,
    "pageNumber": 0,
    "pageSize": 1,
    "paged": true,
    "unpaged": false
  },
  "last": false,
  "totalPages": 3,
  "totalElements": 3,
  "first": true,
  "size": 1,
  "number": 0,
  "numberOfElements": 1,
  "sort": {
    "sorted": true,
    "unsorted": false,
    "empty": false
  },
  "empty": false
}
